dump2.vcd
$date
    May 13, 2018  01:06:05
$end
$version
    TOOL:	ncsim	15.20-s038
$end
$timescale
    1 ps
$end

$scope module TestBench_Processor $end
$var reg       1 !    clk  $end
$var reg       1 "    rst  $end
$var wire      8 #    Out [7:0] $end
$var wire      4 $    conditions_flags [3:0] $end
$var wire      8 %    seg_out [7:0] $end
$var wire      1 &    disp1  $end
$var wire      1 '    disp2  $end
$var wire      1 (    disp3  $end
$var wire      1 )    disp4  $end
$var wire      1 *    dsip2  $end
$var integer  32 +    i  $end

$scope module uut $end
$var wire      1 ,    clk  $end
$var wire      1 -    rst  $end
$var wire      8 #    Out [7:0] $end
$var wire      4 $    conditions_flags [3:0] $end
$var reg       8 .    seg_out [7:0] $end
$var reg       1 /    disp1  $end
$var reg       1 0    disp2  $end
$var wire      1 (    disp3  $end
$var wire      1 )    disp4  $end
$var wire      8 1    PC_Next [7:0] $end
$var wire      8 2    PC_Current [7:0] $end
$var wire     32 3    IC [31:0] $end
$var wire      1 4    PdataIfId [43] $end
$var wire      1 5    PdataIfId [42] $end
$var wire      1 6    PdataIfId [41] $end
$var wire      1 7    PdataIfId [40] $end
$var wire      1 8    PdataIfId [39] $end
$var wire      1 9    PdataIfId [38] $end
$var wire      1 :    PdataIfId [37] $end
$var wire      1 ;    PdataIfId [36] $end
$var wire      1 <    PdataIfId [35] $end
$var wire      1 =    PdataIfId [34] $end
$var wire      1 >    PdataIfId [33] $end
$var wire      1 ?    PdataIfId [32] $end
$var wire      1 @    PdataIfId [31] $end
$var wire      1 A    PdataIfId [30] $end
$var wire      1 B    PdataIfId [29] $end
$var wire      1 C    PdataIfId [28] $end
$var wire      1 D    PdataIfId [27] $end
$var wire      1 E    PdataIfId [26] $end
$var wire      1 F    PdataIfId [25] $end
$var wire      1 G    PdataIfId [24] $end
$var wire      1 H    PdataIfId [23] $end
$var wire      1 I    PdataIfId [22] $end
$var wire      1 J    PdataIfId [21] $end
$var wire      1 K    PdataIfId [20] $end
$var wire      1 L    PdataIfId [19] $end
$var wire      1 M    PdataIfId [18] $end
$var wire      1 N    PdataIfId [17] $end
$var wire      1 O    PdataIfId [16] $end
$var wire      1 P    PdataIfId [15] $end
$var wire      1 Q    PdataIfId [14] $end
$var wire      1 R    PdataIfId [13] $end
$var wire      1 S    PdataIfId [12] $end
$var wire      1 T    PdataIfId [11] $end
$var wire      1 U    PdataIfId [10] $end
$var wire      1 V    PdataIfId [9] $end
$var wire      1 W    PdataIfId [8] $end
$var wire      1 X    PdataIfId [7] $end
$var wire      1 Y    PdataIfId [6] $end
$var wire      1 Z    PdataIfId [5] $end
$var wire      1 [    PdataIfId [4] $end
$var wire      1 \    PdataIfId [3] $end
$var wire      1 ]    PdataIfId [2] $end
$var wire      1 ^    PdataIfId [1] $end
$var wire      1 _    PdataIfId [0] $end
$var wire      1 `    PdataIdEx [68] $end
$var wire      1 a    PdataIdEx [67] $end
$var wire      1 b    PdataIdEx [66] $end
$var wire      1 c    PdataIdEx [65] $end
$var wire      1 d    PdataIdEx [64] $end
$var wire      1 e    PdataIdEx [63] $end
$var wire      1 f    PdataIdEx [62] $end
$var wire      1 g    PdataIdEx [61] $end
$var wire      1 h    PdataIdEx [60] $end
$var wire      1 i    PdataIdEx [59] $end
$var wire      1 j    PdataIdEx [58] $end
$var wire      1 k    PdataIdEx [57] $end
$var wire      1 l    PdataIdEx [56] $end
$var wire      1 m    PdataIdEx [55] $end
$var wire      1 n    PdataIdEx [54] $end
$var wire      1 o    PdataIdEx [53] $end
$var wire      1 p    PdataIdEx [52] $end
$var wire      1 q    PdataIdEx [51] $end
$var wire      1 r    PdataIdEx [50] $end
$var wire      1 s    PdataIdEx [49] $end
$var wire      1 t    PdataIdEx [48] $end
$var wire      1 u    PdataIdEx [47] $end
$var wire      1 v    PdataIdEx [46] $end
$var wire      1 w    PdataIdEx [45] $end
$var wire      1 x    PdataIdEx [44] $end
$var wire      1 y    PdataIdEx [43] $end
$var wire      1 z    PdataIdEx [42] $end
$var wire      1 {    PdataIdEx [41] $end
$var wire      1 |    PdataIdEx [40] $end
$var wire      1 }    PdataIdEx [39] $end
$var wire      1 ~    PdataIdEx [38] $end
$var wire      1 !!   PdataIdEx [37] $end
$var wire      1 "!   PdataIdEx [36] $end
$var wire      1 #!   PdataIdEx [35] $end
$var wire      1 $!   PdataIdEx [34] $end
$var wire      1 %!   PdataIdEx [33] $end
$var wire      1 &!   PdataIdEx [32] $end
$var wire      1 '!   PdataIdEx [31] $end
$var wire      1 (!   PdataIdEx [30] $end
$var wire      1 )!   PdataIdEx [29] $end
$var wire      1 *!   PdataIdEx [28] $end
$var wire      1 +!   PdataIdEx [27] $end
$var wire      1 ,!   PdataIdEx [26] $end
$var wire      1 -!   PdataIdEx [25] $end
$var wire      1 .!   PdataIdEx [24] $end
$var wire      1 /!   PdataIdEx [23] $end
$var wire      1 0!   PdataIdEx [22] $end
$var wire      1 1!   PdataIdEx [21] $end
$var wire      1 2!   PdataIdEx [20] $end
$var wire      1 3!   PdataIdEx [19] $end
$var wire      1 4!   PdataIdEx [18] $end
$var wire      1 5!   PdataIdEx [17] $end
$var wire      1 6!   PdataIdEx [16] $end
$var wire      1 7!   PdataIdEx [15] $end
$var wire      1 8!   PdataIdEx [14] $end
$var wire      1 9!   PdataIdEx [13] $end
$var wire      1 :!   PdataIdEx [12] $end
$var wire      1 ;!   PdataIdEx [11] $end
$var wire      1 <!   PdataIdEx [10] $end
$var wire      1 =!   PdataIdEx [9] $end
$var wire      1 >!   PdataIdEx [8] $end
$var wire      1 ?!   PdataIdEx [7] $end
$var wire      1 @!   PdataIdEx [6] $end
$var wire      1 A!   PdataIdEx [5] $end
$var wire      1 B!   PdataIdEx [4] $end
$var wire      1 C!   PdataIdEx [3] $end
$var wire      1 D!   PdataIdEx [2] $end
$var wire      1 E!   PdataIdEx [1] $end
$var wire      1 F!   PdataIdEx [0] $end
$var wire      1 G!   PdataMemWb [12] $end
$var wire      1 H!   PdataMemWb [11] $end
$var wire      1 I!   PdataMemWb [10] $end
$var wire      1 J!   PdataMemWb [9] $end
$var wire      1 K!   PdataMemWb [8] $end
$var wire      1 L!   PdataMemWb [7] $end
$var wire      1 M!   PdataMemWb [6] $end
$var wire      1 N!   PdataMemWb [5] $end
$var wire      1 O!   PdataMemWb [4] $end
$var wire      1 P!   PdataMemWb [3] $end
$var wire      1 Q!   PdataMemWb [2] $end
$var wire      1 R!   PdataMemWb [1] $end
$var wire      1 S!   PdataMemWb [0] $end
$var wire      1 T!   PdataExMem [23] $end
$var wire      1 U!   PdataExMem [22] $end
$var wire      1 V!   PdataExMem [21] $end
$var wire      1 W!   PdataExMem [20] $end
$var wire      1 X!   PdataExMem [19] $end
$var wire      1 Y!   PdataExMem [18] $end
$var wire      1 Z!   PdataExMem [17] $end
$var wire      1 [!   PdataExMem [16] $end
$var wire      1 \!   PdataExMem [15] $end
$var wire      1 ]!   PdataExMem [14] $end
$var wire      1 ^!   PdataExMem [13] $end
$var wire      1 _!   PdataExMem [12] $end
$var wire      1 `!   PdataExMem [11] $end
$var wire      1 a!   PdataExMem [10] $end
$var wire      1 b!   PdataExMem [9] $end
$var wire      1 c!   PdataExMem [8] $end
$var wire      1 d!   PdataExMem [7] $end
$var wire      1 e!   PdataExMem [6] $end
$var wire      1 f!   PdataExMem [5] $end
$var wire      1 g!   PdataExMem [4] $end
$var wire      1 h!   PdataExMem [3] $end
$var wire      1 i!   PdataExMem [2] $end
$var wire      1 j!   PdataExMem [1] $end
$var wire      1 k!   PdataExMem [0] $end
$var wire      4 l!   control [3:0] $end
$var wire      8 m!   S1 [7:0] $end
$var wire      8 n!   S2 [7:0] $end
$var wire      8 o!   alu_src1 [7:0] $end
$var wire      8 p!   alu_src2 [7:0] $end
$var wire      8 q!   data_to_reg [7:0] $end
$var wire      8 r!   data_to_mem [7:0] $end
$var wire      4 s!   reg_dest [3:0] $end
$var wire      1 t!   rd_en  $end
$var wire      1 u!   wr_en  $end
$var wire      1 v!   mem_to_reg  $end
$var wire      1 w!   reg_write  $end
$var wire      1 x!   branch  $end
$var wire      8 y!   ic [7:0] $end
$var wire      2 z!   in [1:0] $end
$var wire      8 {!   offset [7:0] $end
$var wire      4 |!   rn [3:0] $end
$var wire      4 }!   rm [3:0] $end
$var wire      4 ~!   str_src_reg [3:0] $end
$var wire      8 !"   alu_out [7:0] $end
$var wire      8 ""   mem_out [7:0] $end
$var wire      1 #"   cond_is_zero  $end
$var wire      1 $"   cond_is_negative  $end
$var wire      1 %"   cond_is_overflow  $end
$var wire      1 &"   cond_is_always  $end
$var wire      1 '"   cond_update  $end
$var wire      1 ("   cpsr_write  $end
$var wire      8 )"   cpsr [7:0] $end
$var wire      1 *"   cond_satisfy  $end
$var wire      1 +"   immediate  $end
$var wire      8 ,"   riscv_branch_offset [7:0] $end
$var wire      1 -"   riscv_branch  $end
$var reg       1 ."   nclk  $end
$var reg       2 /"   sclk [1:0] $end
$var reg       4 0"   temp1 [3:0] $end
$var reg       4 1"   temp2 [3:0] $end
$var reg       8 2"   seg_led_1 [7:0] $end
$var reg       8 3"   seg_led_2 [7:0] $end
$var reg       8 4"   cur_state [7:0] $end
$var reg       8 5"   next_state [7:0] $end

$scope module pc $end
$var wire      1 6"   clk  $end
$var wire      1 -    rst  $end
$var wire      8 1    PC_Next [7:0] $end
$var reg       8 7"   PC_Current [7:0] $end
$upscope $end


$scope module pcInc $end
$var wire      8 2    PC_Current [7:0] $end
$var wire      8 !"   Branch_Target [7:0] $end
$var wire      2 z!   in [1:0] $end
$var wire      1 s    branch  $end
$var wire      1 *"   cond_satisfy  $end
$var wire      8 1    PC_Next [7:0] $end
$upscope $end


$scope module im $end
$var wire      8 2    PC [7:0] $end
$var wire      8 y!   IC [7:0] $end
$var wire      2 z!   in [1:0] $end
$var reg       8 8"   my_IMreg [7:0] $end
$upscope $end


$scope module ireg $end
$var wire      8 y!   ic [7:0] $end
$var wire      2 z!   in [1:0] $end
$var reg      32 9"   IC [31:0] $end
$upscope $end


$scope module PRegIfId $end
$var wire      1 :"   sclk  $end
$var wire      1 -    rst  $end
$var wire     32 3    IC [31:0] $end
$var wire      8 2    PC [7:0] $end
$var wire      4 $    conditions_flags [3:0] $end
$var reg      44 ;"   data_out [43:0] $end
$upscope $end


$scope module cU $end
$var wire      1 @    cmd [31] $end
$var wire      1 A    cmd [30] $end
$var wire      1 B    cmd [29] $end
$var wire      1 C    cmd [28] $end
$var wire      1 D    cmd [27] $end
$var wire      1 E    cmd [26] $end
$var wire      1 F    cmd [25] $end
$var wire      1 G    cmd [24] $end
$var wire      1 H    cmd [23] $end
$var wire      1 I    cmd [22] $end
$var wire      1 J    cmd [21] $end
$var wire      1 K    cmd [20] $end
$var wire      1 L    cmd [19] $end
$var wire      1 M    cmd [18] $end
$var wire      1 N    cmd [17] $end
$var wire      1 O    cmd [16] $end
$var wire      1 P    cmd [15] $end
$var wire      1 Q    cmd [14] $end
$var wire      1 R    cmd [13] $end
$var wire      1 S    cmd [12] $end
$var wire      1 T    cmd [11] $end
$var wire      1 U    cmd [10] $end
$var wire      1 V    cmd [9] $end
$var wire      1 W    cmd [8] $end
$var wire      1 X    cmd [7] $end
$var wire      1 Y    cmd [6] $end
$var wire      1 Z    cmd [5] $end
$var wire      1 [    cmd [4] $end
$var wire      1 \    cmd [3] $end
$var wire      1 ]    cmd [2] $end
$var wire      1 ^    cmd [1] $end
$var wire      1 _    cmd [0] $end
$var reg       1 <"   rd_en  $end
$var reg       1 ="   wr_en  $end
$var reg       1 >"   mem_to_reg  $end
$var reg       1 ?"   reg_write  $end
$var wire      4 |!   rn [3:0] $end
$var wire      4 }!   rm [3:0] $end
$var wire      4 s!   reg_dest [3:0] $end
$var reg       4 @"   ALUC [3:0] $end
$var wire      1 +"   immediate  $end
$var wire      1 x!   branch  $end
$var reg       8 A"   offset [7:0] $end
$var wire      4 ~!   str_src_reg [3:0] $end
$var reg       1 B"   cond_is_zero  $end
$var reg       1 C"   cond_is_negative  $end
$var reg       1 D"   cond_is_overflow  $end
$var reg       1 E"   cond_is_always  $end
$var reg       1 F"   cond_update  $end
$var reg       8 G"   riscv_branch_offset [7:0] $end
$var wire      1 -"   riscv_branch  $end
$var wire      1 H"   cmd_is_dp  $end
$var wire      1 I"   cmd_is_swi  $end
$var wire      1 J"   cmd_is_b  $end
$var wire      1 K"   cmd_is_ld_str  $end
$var wire      4 L"   cmd_conditions_bits [3:0] $end
$var wire      1 M"   arm_str_reg  $end
$var wire      1 N"   immediate_risc  $end
$var reg       1 O"   arm_isa  $end
$var reg       1 P"   riscv_isa  $end
$var wire      1 Q"   cmd_risc_is_dp  $end
$var wire      1 R"   cmd_risc_is_swi  $end
$var wire      1 S"   cmd_risc_is_b  $end
$var wire      1 T"   cmd_risc_is_ld_str  $end
$var wire      1 U"   riscv_str_reg  $end
$var wire      1 V"   risc_str_reg  $end
$upscope $end


$scope module rF $end
$var wire      4 |!   rn [3:0] $end
$var wire      4 }!   rm [3:0] $end
$var wire      1 H!   rd [3] $end
$var wire      1 I!   rd [2] $end
$var wire      1 J!   rd [1] $end
$var wire      1 K!   rd [0] $end
$var wire      4 ~!   str_src_reg [3:0] $end
$var wire      1 L!   WD [7] $end
$var wire      1 M!   WD [6] $end
$var wire      1 N!   WD [5] $end
$var wire      1 O!   WD [4] $end
$var wire      1 P!   WD [3] $end
$var wire      1 Q!   WD [2] $end
$var wire      1 R!   WD [1] $end
$var wire      1 S!   WD [0] $end
$var wire      1 W"   clk  $end
$var wire      1 G!   reg_write  $end
$var wire      1 4    conditions_flags [3] $end
$var wire      1 5    conditions_flags [2] $end
$var wire      1 6    conditions_flags [1] $end
$var wire      1 7    conditions_flags [0] $end
$var wire      1 ("   cpsr_write  $end
$var reg       8 X"   S1 [7:0] $end
$var reg       8 Y"   S2 [7:0] $end
$var reg       8 Z"   data_to_mem [7:0] $end
$var reg       8 ["   cpsr [7:0] $end
$var integer  32 \"   i  $end
$upscope $end


$scope module mux1 $end
$var wire      1 +"   immediate  $end
$var wire      1 x!   branch  $end
$var wire      8 n!   S2 [7:0] $end
$var wire      8 m!   S1 [7:0] $end
$var wire      8 {!   offset [7:0] $end
$var wire      1 8    PC_Current [7] $end
$var wire      1 9    PC_Current [6] $end
$var wire      1 :    PC_Current [5] $end
$var wire      1 ;    PC_Current [4] $end
$var wire      1 <    PC_Current [3] $end
$var wire      1 =    PC_Current [2] $end
$var wire      1 >    PC_Current [1] $end
$var wire      1 ?    PC_Current [0] $end
$var wire      8 o!   alu_src1 [7:0] $end
$var wire      8 p!   alu_src2 [7:0] $end
$upscope $end


$scope module PRegIdEx $end
$var wire      4 l!   control [3:0] $end
$var wire      8 o!   S1 [7:0] $end
$var wire      8 p!   S2 [7:0] $end
$var wire      8 r!   data_to_mem [7:0] $end
$var wire      1 8    PC_current [7] $end
$var wire      1 9    PC_current [6] $end
$var wire      1 :    PC_current [5] $end
$var wire      1 ;    PC_current [4] $end
$var wire      1 <    PC_current [3] $end
$var wire      1 =    PC_current [2] $end
$var wire      1 >    PC_current [1] $end
$var wire      1 ?    PC_current [0] $end
$var wire      8 ,"   riscv_branch_offset [7:0] $end
$var wire      4 s!   reg_dest [3:0] $end
$var wire      1 t!   rd_en  $end
$var wire      1 u!   wr_en  $end
$var wire      1 v!   mem_to_reg  $end
$var wire      1 w!   reg_write  $end
$var wire      1 -    rst  $end
$var wire      1 -"   riscv_branch  $end
$var wire      1 #"   cond_is_zero  $end
$var wire      1 $"   cond_is_negative  $end
$var wire      1 %"   cond_is_overflow  $end
$var wire      1 &"   cond_is_always  $end
$var wire      1 '"   cond_update  $end
$var wire      4 $    conditions_flags [3:0] $end
$var wire      1 x!   branch  $end
$var wire      1 ]"   nclk  $end
$var reg      69 ^"   data_out [68:0] $end
$upscope $end


$scope module aluTop $end
$var wire      1 ;!   A [7] $end
$var wire      1 <!   A [6] $end
$var wire      1 =!   A [5] $end
$var wire      1 >!   A [4] $end
$var wire      1 ?!   A [3] $end
$var wire      1 @!   A [2] $end
$var wire      1 A!   A [1] $end
$var wire      1 B!   A [0] $end
$var wire      1 3!   B [7] $end
$var wire      1 4!   B [6] $end
$var wire      1 5!   B [5] $end
$var wire      1 6!   B [4] $end
$var wire      1 7!   B [3] $end
$var wire      1 8!   B [2] $end
$var wire      1 9!   B [1] $end
$var wire      1 :!   B [0] $end
$var wire      1 C!   control [3] $end
$var wire      1 D!   control [2] $end
$var wire      1 E!   control [1] $end
$var wire      1 F!   control [0] $end
$var wire      1 |    cond_is_zero  $end
$var wire      1 }    cond_is_negative  $end
$var wire      1 ~    cond_is_overflow  $end
$var wire      1 !!   cond_is_always  $end
$var wire      1 "!   cond_update  $end
$var wire      1 t    inst_conds [3] $end
$var wire      1 u    inst_conds [2] $end
$var wire      1 v    inst_conds [1] $end
$var wire      1 w    inst_conds [0] $end
$var wire      1 s    branch  $end
$var wire      1 b    PC [7] $end
$var wire      1 c    PC [6] $end
$var wire      1 d    PC [5] $end
$var wire      1 e    PC [4] $end
$var wire      1 f    PC [3] $end
$var wire      1 g    PC [2] $end
$var wire      1 h    PC [1] $end
$var wire      1 i    PC [0] $end
$var wire      1 k    riscv_branch_offset [7] $end
$var wire      1 l    riscv_branch_offset [6] $end
$var wire      1 m    riscv_branch_offset [5] $end
$var wire      1 n    riscv_branch_offset [4] $end
$var wire      1 o    riscv_branch_offset [3] $end
$var wire      1 p    riscv_branch_offset [2] $end
$var wire      1 q    riscv_branch_offset [1] $end
$var wire      1 r    riscv_branch_offset [0] $end
$var wire      8 !"   out [7:0] $end
$var wire      4 $    conditions_flags [3:0] $end
$var wire      1 ("   cpsr_write  $end
$var reg       8 _"   a [7:0] $end
$var reg       8 `"   b [7:0] $end
$var reg       8 a"   Out [7:0] $end
$var reg       1 b"   oN  $end
$var reg       1 c"   oZ  $end
$var reg       1 d"   oC  $end
$var reg       1 e"   oV  $end
$var reg       1 f"   cond_satisfy  $end

$scope task CLA2 $end
$var reg       8 g"   a [7:0] $end
$var reg       8 h"   b [7:0] $end
$var reg       1 i"   cin  $end
$var reg       8 j"   out [7:0] $end
$var reg       1 k"   oN  $end
$var reg       1 l"   oZ  $end
$var reg       1 m"   oC  $end
$var reg       1 n"   oV  $end
$var reg       8 o"   g [7:0] $end
$var reg       8 p"   p [7:0] $end
$var reg       1 q"   G0  $end
$var reg       1 r"   G1  $end
$var reg       1 s"   P0  $end
$var reg       1 t"   P1  $end
$var reg       1 u"   Neg  $end
$var reg       8 v"   c [7:0] $end
$var reg       1 w"   C1  $end
$var reg       1 x"   C2  $end
$upscope $end


$scope task barrel_shifter $end
$var reg       8 y"   a [7:0] $end
$var reg       3 z"   shift_by [2:0] $end
$var reg       1 {"   lsh  $end
$var reg       1 |"   rsh  $end
$var reg       8 }"   b [7:0] $end
$upscope $end

$upscope $end


$scope module PregExMem $end
$var wire      8 !"   alu_result [7:0] $end
$var wire      1 +!   data_to_mem [7] $end
$var wire      1 ,!   data_to_mem [6] $end
$var wire      1 -!   data_to_mem [5] $end
$var wire      1 .!   data_to_mem [4] $end
$var wire      1 /!   data_to_mem [3] $end
$var wire      1 0!   data_to_mem [2] $end
$var wire      1 1!   data_to_mem [1] $end
$var wire      1 2!   data_to_mem [0] $end
$var wire      1 '!   reg_dest [3] $end
$var wire      1 (!   reg_dest [2] $end
$var wire      1 )!   reg_dest [1] $end
$var wire      1 *!   reg_dest [0] $end
$var wire      1 $!   rd_en  $end
$var wire      1 %!   wr_en  $end
$var wire      1 &!   mem_to_reg  $end
$var wire      1 #!   reg_write  $end
$var wire      1 -    rst  $end
$var wire      1 s    branch  $end
$var wire      1 ~"   nclk  $end
$var reg      24 !#   data_out [23:0] $end
$upscope $end


$scope module dataMem $end
$var wire      1 d!   address [7] $end
$var wire      1 e!   address [6] $end
$var wire      1 f!   address [5] $end
$var wire      1 g!   address [4] $end
$var wire      1 h!   address [3] $end
$var wire      1 i!   address [2] $end
$var wire      1 j!   address [1] $end
$var wire      1 k!   address [0] $end
$var wire      1 \!   data_in [7] $end
$var wire      1 ]!   data_in [6] $end
$var wire      1 ^!   data_in [5] $end
$var wire      1 _!   data_in [4] $end
$var wire      1 `!   data_in [3] $end
$var wire      1 a!   data_in [2] $end
$var wire      1 b!   data_in [1] $end
$var wire      1 c!   data_in [0] $end
$var wire      1 U!   rd_en  $end
$var wire      1 V!   wr_en  $end
$var reg       8 "#   data_out [7:0] $end
$var integer  32 ##   i  $end
$upscope $end


$scope module mux2 $end
$var wire      1 d!   alu_out [7] $end
$var wire      1 e!   alu_out [6] $end
$var wire      1 f!   alu_out [5] $end
$var wire      1 g!   alu_out [4] $end
$var wire      1 h!   alu_out [3] $end
$var wire      1 i!   alu_out [2] $end
$var wire      1 j!   alu_out [1] $end
$var wire      1 k!   alu_out [0] $end
$var wire      8 ""   mem_out [7:0] $end
$var wire      1 W!   mem_to_reg  $end
$var wire      8 q!   data_to_reg [7:0] $end
$upscope $end


$scope module PRegMemWb $end
$var wire      8 q!   data_to_reg [7:0] $end
$var wire      1 X!   reg_dest [3] $end
$var wire      1 Y!   reg_dest [2] $end
$var wire      1 Z!   reg_dest [1] $end
$var wire      1 [!   reg_dest [0] $end
$var wire      1 T!   reg_write  $end
$var wire      1 -    rst  $end
$var wire      1 $#   nclk  $end
$var reg      13 %#   data_out [12:0] $end
$upscope $end

$upscope $end

$upscope $end

$enddefinitions $end
$dumpvars
x!
1"
b0 #
b0 $
b10000001 %
0&
z'
1(
1)
1*
bx +
x,
1-
b10000001 .
0/
10
b0 1
b11111111 2
b0xxxxxxxxxxxxxxxxxxxxxxxx 3
04
05
06
07
08
09
0:
0;
0<
0=
0>
0?
0@
0A
0B
0C
0D
0E
0F
0G
0H
0I
0J
0K
0L
0M
0N
0O
0P
0Q
0R
0S
0T
0U
0V
0W
0X
0Y
0Z
0[
0\
0]
0^
0_
0`
0a
0b
0c
0d
0e
0f
0g
0h
0i
0j
0k
0l
0m
0n
0o
0p
0q
0r
0s
0t
0u
0v
0w
0x
0y
0z
0{
0|
0}
0~
0!!
0"!
0#!
0$!
0%!
0&!
0'!
0(!
0)!
0*!
0+!
0,!
0-!
0.!
0/!
00!
01!
02!
03!
04!
05!
06!
07!
08!
09!
0:!
0;!
0<!
0=!
0>!
0?!
0@!
0A!
0B!
0C!
0D!
0E!
0F!
0G!
0H!
0I!
0J!
0K!
0L!
0M!
0N!
0O!
0P!
0Q!
0R!
0S!
0T!
0U!
0V!
0W!
0X!
0Y!
0Z!
0[!
0\!
0]!
0^!
0_!
0`!
0a!
0b!
0c!
0d!
0e!
0f!
0g!
0h!
0i!
0j!
0k!
bx l!
b0 m!
b0 n!
b0 o!
b0 p!
b0 q!
b0 r!
b0 s!
xt!
xu!
xv!
xw!
0x!
b0 y!
b11 z!
bx {!
b0 |!
b0 }!
b0 ~!
bx !"
b0 ""
1#"
0$"
0%"
0&"
0'"
0("
b0xxxx )"
0*"
0+"
b0 ,"
0-"
0."
b11 /"
b0 0"
b0 1"
b10000001 2"
b10000001 3"
b0 4"
b1 5"
06"
b11111111 7"
b0 8"
b0xxxxxxxxxxxxxxxxxxxxxxxx 9"
1:"
b0 ;"
x<"
x="
x>"
x?"
bx @"
bx A"
1B"
0C"
0D"
0E"
0F"
b0 G"
0H"
0I"
0J"
0K"
b0 L"
0M"
0N"
1O"
0P"
0Q"
zR"
0S"
0T"
zU"
0V"
0W"
b0 X"
b0 Y"
b0 Z"
b0xxxx ["
b10000 \"
0]"
b0 ^"
bx _"
bx `"
bx a"
xb"
xc"
xd"
xe"
0f"
bx g"
bx h"
xi"
bx j"
xk"
xl"
xm"
xn"
bx o"
bx p"
xq"
xr"
xs"
xt"
xu"
bx v"
xw"
xx"
bx y"
bx z"
x{"
x|"
bx }"
0~"
b0 !#
b0 "#
b10000000 ##
0$#
b0 %#
$end
#50000
0"
0!
b0 +
0,
0-
#100000
1!
b1 +
1,
1."
1$#
1~"
1]"
1W"
16"
b0 /"
b0xxxxxxxx !#
b0xxxx ^"
b0xxxx0000000000000000000000000000xxxx ^"
b10000xxxx0000000000000000000000000000xxxx ^"
b0 7"
0:"
b0 2
1|
x#!
x$!
x%!
x&!
xC!
xD!
xE!
xF!
xd!
xe!
xf!
xg!
xh!
xi!
xj!
xk!
bx q!
b1 1
b0 z!
b0xxxxxxxxxxxxxxxx00000000 9"
b0xxxxxxxxxxxxxxxx00000000 3
b0xxxxxxxxxxxxxxxxxxxxxxxx ;"
xH
xI
xJ
xK
xL
xM
xN
xO
xP
xQ
xR
xS
xT
xU
xV
xW
xX
xY
xZ
x[
x\
x]
x^
x_
xQ"
xN"
0B"
1B"
xS"
xT"
bx s!
bx |!
xH"
bx }!
0B"
1B"
xF"
x'"
xV"
#150000
0!
b10 +
0,
#200000
1!
b11 +
1,
0."
0$#
0~"
0]"
0W"
06"
#250000
0!
b100 +
0,
#300000
1!
b101 +
1,
1."
1$#
1~"
1]"
1W"
16"
b1 /"
b0xxxxxxxx %#
bx000000000000xxxxxxxx !#
b10000xxxxxxxx000000000000000000000000xxxx ^"
b1000xxxxxxxxx000000000000000000000000xxxx ^"
b1 7"
b1 2
x"!
x'!
x(!
x)!
x*!
xT!
xU!
xV!
xW!
xL!
xM!
xN!
xO!
xP!
xQ!
xR!
xS!
bx #
bx $
x("
b10 1
b1 z!
bx 0"
bx 1"
b0xxxxxxxx0000000000000000 9"
b11111111 2"
b11111111 3"
b0xxxxxxxx0000000000000000 3
b11111111 .
b11111111 %
#350000
0!
b110 +
0,
#400000
1!
b111 +
1,
0."
0$#
0~"
0]"
0W"
06"
#450000
0!
b1000 +
0,
#500000
1!
b1001 +
1,
1."
1$#
1~"
1]"
1W"
16"
b10 /"
bx0000xxxxxxxx %#
bx00000000xxxxxxxx !#
b0xxxx00001000xxxxxxxxx000000000000000000000000xxxx ^"
b10 7"
1:"
b10 2
xt
xu
xv
xw
xX!
xY!
xZ!
x[!
xG!
xf"
x*"
b11 1
b10 z!
b0 9"
b0 3
b1 4"
1/
00
b0 5"
0*
1&
#550000
0!
b1010 +
0,
#600000
1!
b1011 +
1,
0."
0$#
0~"
0]"
0W"
06"
#650000
0!
b1100 +
0,
#700000
1!
b1101 +
1,
1."
1$#
1~"
1]"
1W"
16"
b11 /"
bx %#
b11 7"
b11 2
xH!
xI!
xJ!
xK!
b100 1
b11 z!
#750000
0!
b1110 +
0,
#800000
1!
b1111 +
1,
0."
0$#
0~"
0]"
0W"
06"
#850000
0!
b10000 +
0,
#900000
1!
b10001 +
1,
1."
1$#
1~"
1]"
1W"
16"
b0 /"
b100 7"
0:"
b100 2
b101 1
b0 z!
bx0000010000000000000000000000000000000000 ;"
b101 8"
b101 y!
x4
x5
x6
x7
1=
0H
0I
0J
0K
0L
0M
0N
0O
0P
0Q
0R
0S
0T
0U
0V
0W
0X
0Y
0Z
0[
0\
0]
0^
0_
0Q"
b101 9"
bx ["
0B"
1B"
0F"
0V"
0S"
0T"
b0 s!
b0 |!
0'"
0H"
b0 }!
bx )"
b101 3
0N"
0B"
1B"
#950000
0!
b10010 +
0,
#1000000
1!
b10011 +
1,
0."
0$#
0~"
0]"
0W"
06"
#1050000
0!
b10100 +
0,
#1100000
1!
b10101 +
1,
1."
1$#
1~"
1]"
1W"
16"
b1 /"
b0xxxx00001000xxxxx0000000000000000000000000000xxxx ^"
b0xxxx000010000xxxx0000000000000000000000000000xxxx ^"
b1000000000000xxxx000010000xxxx0000000000000000000000000000xxxx ^"
b101 7"
b101 2
1g
0"!
0'!
0(!
0)!
0*!
0("
b110 1
b1 z!
b10100000101 9"
b10100000101 3
b1000000 8"
b1000000 y!
b100000000000101 9"
b100000000000101 3
#1150000
0!
b10110 +
0,
#1200000
1!
b10111 +
1,
0."
0$#
0~"
0]"
0W"
06"
#1250000
0!
b11000 +
0,
#1300000
1!
b11001 +
1,
1."
1$#
1~"
1]"
1W"
16"
b10 /"
bx000000000000xxxxxxxx !#
b110 7"
1:"
b110 2
0X!
0Y!
0Z!
0[!
b111 1
b10 z!
b10000000100000000000101 9"
b10000000100000000000101 3
b0 4"
b10100000 8"
b10100000 y!
b101000000100000000000101 9"
b101000000100000000000101 3
0/
10
b1 5"
1*
0&
#1350000
0!
b11010 +
0,
#1400000
1!
b11011 +
1,
0."
0$#
0~"
0]"
0W"
06"
#1450000
0!
b11100 +
0,
#1500000
1!
b11101 +
1,
1."
1$#
1~"
1]"
1W"
16"
b11 /"
bx0000xxxxxxxx %#
b111 7"
b111 2
0H!
0I!
0J!
0K!
b1000 1
b11 z!
b10100000101000000100000000000101 9"
b10100000101000000100000000000101 3
b11100011 8"
b11100011 y!
b11100011101000000100000000000101 9"
b11100011101000000100000000000101 3
#1550000
0!
b11110 +
0,
#1600000
1!
b11111 +
1,
0."
0$#
0~"
0]"
0W"
06"
#1650000
0!
b100000 +
0,
#1700000
1!
b100001 +
1,
1."
1$#
1~"
1]"
1W"
16"
b0 /"
b1000 7"
0:"
b1000 2
b1001 1
b0 z!
b11100011101000000100000011100011 9"
b11100011101000000100000011100011 3
bx0000100011100011101000000100000000000101 ;"
b0 8"
b0 y!
1<
0=
1@
1A
1B
1F
1G
1H
1J
1Q
1]
1_
b11100011101000000100000000000000 9"
0B"
1B"
b100 s!
b101 }!
1+"
1H"
b1110 L"
b11100011101000000100000000000000 3
0B"
1E"
b101 A"
1?"
0<"
0="
0>"
b110 @"
b110 l!
0v!
0u!
0t!
1w!
b101 {!
1&"
0#"
bx p!
b101 p!
#1750000
0!
b100010 +
0,
#1800000
1!
b100011 +
1,
0."
0$#
0~"
0]"
0W"
06"
#1850000
0!
b100100 +
0,
